^D:\VISUAL STUDIO\CPP\HOMEWORK\DMITRY_UTKIN\LAB4\TASK6\TASK6\TASK6.CPP
D:\VISUAL STUDIO\CPP\HOMEWORK\DMITRY_UTKIN\LAB4\TASK6\TASK6\DEBUG\VC142.PDB
D:\VISUAL STUDIO\CPP\HOMEWORK\DMITRY_UTKIN\LAB4\TASK6\TASK6\DEBUG\VC142.IDB
D:\VISUAL STUDIO\CPP\HOMEWORK\DMITRY_UTKIN\LAB4\TASK6\TASK6\DEBUG\TASK6.OBJ
