^D:\VISUAL STUDIO\CPP\HOMEWORK\DMITRY_UTKIN\LAB4\TASK5\TASK5\TASK5.CPP
D:\VISUAL STUDIO\CPP\HOMEWORK\DMITRY_UTKIN\LAB4\TASK5\TASK5\DEBUG\VC142.PDB
D:\VISUAL STUDIO\CPP\HOMEWORK\DMITRY_UTKIN\LAB4\TASK5\TASK5\DEBUG\VC142.IDB
D:\VISUAL STUDIO\CPP\HOMEWORK\DMITRY_UTKIN\LAB4\TASK5\TASK5\DEBUG\TASK5.OBJ
