^D:\VISUAL STUDIO\CPP\HOMEWORK\DMITRY_UTKIN\LAB3\TASK4\TASK4\TASK4.CPP
D:\VISUAL STUDIO\CPP\HOMEWORK\DMITRY_UTKIN\LAB3\TASK4\TASK4\DEBUG\VC142.PDB
D:\VISUAL STUDIO\CPP\HOMEWORK\DMITRY_UTKIN\LAB3\TASK4\TASK4\DEBUG\VC142.IDB
D:\VISUAL STUDIO\CPP\HOMEWORK\DMITRY_UTKIN\LAB3\TASK4\TASK4\DEBUG\TASK4.OBJ
