^D:\VISUAL STUDIO\CPP\HOMEWORK\DMITRY_UTKIN\LAB3\TASK3\TASK3\TASK3.CPP
D:\VISUAL STUDIO\CPP\HOMEWORK\DMITRY_UTKIN\LAB3\TASK3\TASK3\DEBUG\VC142.PDB
D:\VISUAL STUDIO\CPP\HOMEWORK\DMITRY_UTKIN\LAB3\TASK3\TASK3\DEBUG\VC142.IDB
D:\VISUAL STUDIO\CPP\HOMEWORK\DMITRY_UTKIN\LAB3\TASK3\TASK3\DEBUG\TASK3.OBJ
