^D:\VISUAL STUDIO\CPP\HOMEWORK\DMITRY_UTKIN\LAB3\TASK3\TASK3\DEBUG\TASK3.OBJ
D:\VISUAL STUDIO\CPP\HOMEWORK\DMITRY_UTKIN\LAB3\TASK3\DEBUG\TASK3.EXE
D:\VISUAL STUDIO\CPP\HOMEWORK\DMITRY_UTKIN\LAB3\TASK3\DEBUG\TASK3.ILK
D:\VISUAL STUDIO\CPP\HOMEWORK\DMITRY_UTKIN\LAB3\TASK3\DEBUG\TASK3.PDB
