^D:\VISUAL STUDIO\CPP\HOMEWORK\DMITRY_UTKIN\LAB4\TASK1\TASK1\DEBUG\TASK1.OBJ
D:\VISUAL STUDIO\CPP\HOMEWORK\DMITRY_UTKIN\LAB4\TASK1\DEBUG\TASK1.ILK
D:\VISUAL STUDIO\CPP\HOMEWORK\DMITRY_UTKIN\LAB4\TASK1\DEBUG\TASK1.EXE
D:\VISUAL STUDIO\CPP\HOMEWORK\DMITRY_UTKIN\LAB4\TASK1\DEBUG\TASK1.PDB
