^D:\VISUAL STUDIO\CPP\HOMEWORK\DMITRY_UTKIN\LAB3\TASK1\TASK1\TASK1.CPP
D:\VISUAL STUDIO\CPP\HOMEWORK\DMITRY_UTKIN\LAB3\TASK1\TASK1\DEBUG\VC142.PDB
D:\VISUAL STUDIO\CPP\HOMEWORK\DMITRY_UTKIN\LAB3\TASK1\TASK1\DEBUG\VC142.IDB
D:\VISUAL STUDIO\CPP\HOMEWORK\DMITRY_UTKIN\LAB3\TASK1\TASK1\DEBUG\TASK1.OBJ
